Division,WeightClassKg,Place,Name,Team,BodyweightKg,Best3SquatKg,Best3BenchKg,Best3DeadliftKg,TotalKg,Equipment,Event,Sex
Boys,51.71,1,Nick Acosta,Seminole,51.71,108.86,65.77,120.2,294.84,Single-ply,SBD,M
Boys,51.71,2,Chris Haney,Midland Lee,49.9,65.77,61.23,97.52,224.53,Single-ply,SBD,M
Boys,51.71,3,Chris Ortiz,Pecos,45.36,81.65,54.43,83.91,219.99,Single-ply,SBD,M
Boys,51.71,DQ,Xavier Estrada,Andrews,51.26,,,,,Single-ply,SBD,M
Boys,55.79,1,JaQuanye Lyons,Midland Lee,53.25,104.33,61.23,124.74,290.3,Single-ply,SBD,M
Boys,55.79,2,Devan Glover,Midland Lee,55.79,90.72,58.97,131.54,281.23,Single-ply,SBD,M
Boys,59.87,3,Jose Raul Ornelas,Levelland,55.97,77.11,54.43,108.86,240.4,Single-ply,SBD,M
Boys,59.87,1,Daniel Valenzuela,Pecos,58.51,158.76,81.65,179.17,419.57,Single-ply,SBD,M
Boys,59.87,2,Daniel Hernandez,Pecos,56.52,136.08,61.23,136.08,333.39,Single-ply,SBD,M
Boys,59.87,3,Emilio Miranda,Levelland,58.06,136.08,61.23,131.54,328.85,Single-ply,SBD,M
Boys,59.87,4,Kody Collins,Monahans,56.79,122.47,65.77,108.86,297.1,Single-ply,SBD,M
Boys,59.87,5,Grant Smith,Levelland,57.61,74.84,38.56,79.38,192.78,Single-ply,SBD,M
Boys,59.87,DQ,Tristan Bollinger,Midland,59.42,,,,,Single-ply,SBD,M
Boys,59.87,DQ,Michael Condarco,Seminole,59.42,145.15,86.18,167.83,,Single-ply,SBD,M
Boys,67.13,1,Alex Valdez,Andrews,67.13,158.76,99.79,190.51,449.06,Single-ply,SBD,M
Boys,67.13,2,Ruben Luna,Midland Lee,66.68,154.22,92.99,151.95,399.16,Single-ply,SBD,M
Boys,67.13,3,Gian Cruz,Monahans,61.23,138.35,74.84,163.29,376.48,Single-ply,SBD,M
Boys,67.13,4,Hayden Dunaway,Andrews,66.41,138.35,86.18,145.15,369.68,Single-ply,SBD,M
Boys,67.13,5,Raul Vasquez,Andrews,64.41,131.54,77.11,145.15,353.8,Single-ply,SBD,M
Boys,67.13,6,Jermelle Madrilez,Andrews,63.5,113.4,79.38,142.88,335.66,Single-ply,SBD,M
Boys,67.13,7,Kandon McKinney,Andrews,64.95,102.06,70.31,136.08,308.44,Single-ply,SBD,M
Boys,67.13,8,Oscar Solís,Pecos,64.05,102.06,68.04,136.08,306.17,Single-ply,SBD,M
Boys,67.13,DQ,Javier Alcorta,Slaton,64.5,124.74,,,,Single-ply,SBD,M
Boys,74.84,1,Holt Eads,Midland,73.48,192.78,124.74,226.8,544.31,Single-ply,SBD,M
Boys,74.84,2,Daniel Lockhart #1,Midland,72.57,165.56,108.86,208.65,483.08,Single-ply,SBD,M
Boys,74.84,3,Logan Gersbach,Seminole,71.21,170.1,115.67,163.29,449.06,Single-ply,SBD,M
Boys,74.84,4,Jeremiah Madrilez,Andrews,71.67,138.35,95.25,158.76,392.36,Single-ply,SBD,M
Boys,74.84,5,Nathan Garver,Midland Lee,69.4,131.54,99.79,149.69,381.02,Single-ply,SBD,M
Boys,74.84,6,Aaron Vasquez,Odessa Permian,70.76,136.08,79.38,145.15,360.61,Single-ply,SBD,M
Boys,74.84,7,Ashton Akbar,Midland Lee,74.84,156.49,68.04,136.08,360.61,Single-ply,SBD,M
Boys,74.84,8,Kye Harvey,Seminole,71.67,136.08,63.5,129.27,328.85,Single-ply,SBD,M
Boys,74.84,9,Gage Kenney,Levelland,72.57,106.59,72.57,142.88,322.05,Single-ply,SBD,M
Boys,82.1,DQ,Joe Macias,Andrews,75.07,167.83,,,,Single-ply,SBD,M
Boys,74.84,DQ,Elias Zuniga,Odessa Permian,69.4,149.69,,,,Single-ply,SBD,M
Boys,74.84,DQ,Mitchell Garza,Odessa Permian,73.03,122.47,,,,Single-ply,SBD,M
Boys,82.1,1,Nicky Hoang,Midland,76.2,174.63,102.06,226.8,503.49,Single-ply,SBD,M
Boys,82.1,2,Jose Cornejo,Andrews,77.11,185.97,104.33,204.12,494.42,Single-ply,SBD,M
Boys,82.1,3,Joey Varela,Pecos,81.19,181.44,92.99,206.38,480.81,Single-ply,SBD,M
Boys,82.1,4,Jake Strickland,Monahans,82.1,195.04,108.86,174.63,478.54,Single-ply,SBD,M
Boys,82.1,5,Ramon Juarez,Seminole,78.02,174.63,102.06,192.78,469.47,Single-ply,SBD,M
Boys,82.1,6,Blake Narrell,Odessa Permian,78.02,172.37,106.59,181.44,460.4,Single-ply,SBD,M
Boys,82.1,7,Casey Huertas,Monahans,82.1,154.22,81.65,161.03,396.89,Single-ply,SBD,M
Boys,82.1,8,Ish Marquez,Monahans,79.38,147.42,90.72,140.61,378.75,Single-ply,SBD,M
Boys,82.1,9,Cody Fuentes,Monahans,81.19,147.42,88.45,142.88,378.75,Single-ply,SBD,M
Boys,82.1,DQ,Dj Landreth,Odessa Permian,79.83,176.9,,,,Single-ply,SBD,M
Boys,82.1,DQ,Braxton Creager,Slaton,76.84,172.37,,,,Single-ply,SBD,M
Boys,99.79,1,Abraham Flores,Pecos,90.04,181.44,122.47,219.99,523.9,Single-ply,SBD,M
Boys,89.81,2,Emilio Solis,Midland,88,188.24,136.08,197.31,521.63,Single-ply,SBD,M
Boys,89.81,3,Nathan Tone,Monahans,88,190.51,111.13,172.37,474,Single-ply,SBD,M
Boys,89.81,4,Ryan Dean,Midland Lee,89.81,170.1,106.59,163.29,439.98,Single-ply,SBD,M
Boys,89.81,5,Joe Hernandez #5,Odessa Permian,84.37,147.42,95.25,174.63,417.3,Single-ply,SBD,M
Boys,89.81,6,Josh Caldwell,Monahans,85.73,167.83,74.84,163.29,405.97,Single-ply,SBD,M
Boys,89.81,7,Braden Price,Levelland,85.09,117.93,79.38,158.76,356.07,Single-ply,SBD,M
Boys,89.81,DQ,Timmothy Basquez,Levelland,89.36,122.47,,,,Single-ply,SBD,M
Boys,89.81,DQ,Coleton Whitlock,Midland,88.45,233.6,,,,Single-ply,SBD,M
Boys,89.81,DQ,Marciel Salinas,Slaton,85.09,172.37,,,,Single-ply,SBD,M
Boys,99.79,1,Dannyk Ramos,Midland,96.16,263.08,129.27,226.8,619.15,Single-ply,SBD,M
Boys,99.79,2,Azel Alvidrez,Andrews,95.71,204.12,149.69,247.21,601.01,Single-ply,SBD,M
Boys,99.79,3,Javier Valdes,Midland,97.98,217.72,138.35,210.92,566.99,Single-ply,SBD,M
Boys,99.79,4,Alex Ayala,Lamesa,98.34,210.92,145.15,206.38,562.45,Single-ply,SBD,M
Boys,99.79,5,Matthew Seibert,Pecos,91.99,192.78,113.4,238.14,544.31,Single-ply,SBD,M
Boys,99.79,6,Micah Melton,Andrews,98.43,199.58,111.13,208.65,519.36,Single-ply,SBD,M
Boys,99.79,7,Michael Coy,Odessa Permian,95.25,217.72,115.67,181.44,514.83,Single-ply,SBD,M
Boys,99.79,8,Juan Valenzuela,Kermit,97.98,174.63,120.2,208.65,503.49,Single-ply,SBD,M
Boys,99.79,9,Stephan Self,Monahans,97.07,170.1,117.93,208.65,496.68,Single-ply,SBD,M
Boys,99.79,10,Esteban López,Andrews,99.34,179.17,117.93,183.7,480.81,Single-ply,SBD,M
Boys,99.79,11,Ty Crabtree,Monahans,99.79,174.63,124.74,181.44,480.81,Single-ply,SBD,M
Boys,99.79,12,Joey Aceves,Andrews,97.52,188.24,95.25,192.78,476.27,Single-ply,SBD,M
Boys,99.79,13,Duston Vargas,Andrews,94.44,163.29,97.52,192.78,453.59,Single-ply,SBD,M
Boys,99.79,14,Justin Johnson,Pecos,98.97,170.1,104.33,179.17,453.59,Single-ply,SBD,M
Boys,99.79,15,David Camargo,Slaton,93.35,174.63,95.25,181.44,451.32,Single-ply,SBD,M
Boys,99.79,DQ,David Gonzales,Odessa Permian,97.98,210.92,,,,Single-ply,SBD,M
Boys,109.77,1,Devon Miller,Midland,107.05,249.48,149.69,244.94,644.1,Single-ply,SBD,M
Boys,109.77,2,Oscar Gutierrez,Monahans,107.05,240.4,124.74,188.24,553.38,Single-ply,SBD,M
Boys,109.77,3,Ben Madrid,Pecos,101.7,192.78,145.15,192.78,530.7,Single-ply,SBD,M
Boys,109.77,4,Fabian Rondan,Andrews,109.77,208.65,111.13,176.9,496.68,Single-ply,SBD,M
Boys,109.77,5,Bryson Calixto,Monahans,108.41,190.51,102.06,165.56,458.13,Single-ply,SBD,M
Boys,109.77,6,Conan Hernandez,Midland Lee,109.77,172.37,117.93,149.69,439.98,Single-ply,SBD,M
Boys,109.77,7,Ruben Tijerina,Levelland,108.86,90.72,47.63,127.01,265.35,Single-ply,SBD,M
Boys,109.77,DQ,Nathan Quiroz,Monahans,108.41,183.7,,,,Single-ply,SBD,M
Boys,124.74,1,Jesus Olivares,Odessa Permian,121.11,265.35,131.54,256.28,653.17,Single-ply,SBD,M
Boys,124.74,2,Jacob Granado,Midland,122.02,283.5,131.54,235.87,650.91,Single-ply,SBD,M
Boys,124.74,3,Cayden White,Odessa Permian,117.48,197.31,120.2,201.85,519.36,Single-ply,SBD,M
Boys,124.74,4,Kyle Rickman,Seminole,115.21,185.97,117.93,204.12,508.02,Single-ply,SBD,M
Boys,124.74,5,McKenzie Lawson,Odessa Permian,119.75,190.51,99.79,185.97,476.27,Single-ply,SBD,M
Boys,124.74,6,Seth Jaramillo,Andrews,118.39,156.49,102.06,163.29,421.84,Single-ply,SBD,M
Boys,124.74,DQ,Alex Holguin,Monahans,114.76,190.51,,,,Single-ply,SBD,M
Boys,124.74+,1,Nicolas Franco,Pecos,160.3,272.16,165.56,192.78,630.49,Single-ply,SBD,M
Boys,124.74+,2,Jacob Molina,Midland Lee,160.57,217.72,120.2,204.12,542.04,Single-ply,SBD,M
Boys,124.74+,3,Aaron Salgado,Pecos,135.81,217.72,104.33,210.92,532.97,Single-ply,SBD,M
Boys,124.74+,4,Garrett Brandenburg,Monahans,134.26,201.85,140.61,181.44,523.9,Single-ply,SBD,M
Boys,124.74+,5,Jayme Murdock,Slaton,183.34,172.37,127.01,204.12,503.49,Single-ply,SBD,M
Boys,124.74+,6,Raymond Porras,Monahans,128.82,181.44,115.67,167.83,464.93,Single-ply,SBD,M
Boys,124.74+,7,Patrick Hernandez,Midland Lee,142.88,163.29,92.99,145.15,401.43,Single-ply,SBD,M
Boys,124.74+,8,AJ Garcia,Slaton,163.2,127.01,92.99,138.35,358.34,Single-ply,SBD,M
Boys,124.74+,DQ,O'Shay Scott,Midland,129.73,219.99,,,,Single-ply,SBD,M
